<?xml version="1.0" encoding="utf-8"?>
<!-- Generator: Adobe Illustrator 15.0.0, SVG Export Plug-In . SVG Version: 6.00 Build 0)  -->
<!DOCTYPE svg PUBLIC "-//W3C//DTD SVG 1.1//EN" "http://www.w3.org/Graphics/SVG/1.1/DTD/svg11.dtd">
<svg version="1.1" id="Layer_1" xmlns="http://www.w3.org/2000/svg" xmlns:xlink="http://www.w3.org/1999/xlink" x="0px" y="0px"
	 width="32px" height="32px" viewBox="0 0 32 32" enable-background="new 0 0 32 32" xml:space="preserve">
<g>
	<circle fill="#9E9BD2" stroke="#0C068E" stroke-width="0.5" stroke-miterlimit="10" cx="16.035" cy="15.965" r="15.49"/>
	<polygon fill="#FFFFFF" points="24.385,27.412 16.078,21.455 7.815,27.44 7.804,27.473 7.77,27.475 7.815,27.44 10.956,17.943 
		2.563,12.104 12.922,12.104 16.103,2.169 16.138,2.169 19.297,12.104 29.504,12.104 21.236,17.9 24.383,27.412 	"/>
</g>
</svg>
